{
   "controller": {
      "UserController": [
         "getUsers",
         "signOut",
         "new",
         "editByCode",
         "test",
         "showSession",
         "getInfo",
         "check",
         "new",
         "edit",
         "delete",
         "getByCode",
         "getToEdit",
         "getUsers",
         "getProductionCenter",
         "getUserType",
         "getNotifications",
         "getAllNotifications",
         "clearNotifications"
      ],
      "AddressedController": [
         "new",
         "edit",
         "get",
         "delete",
         "getAll",
         "getByCode"
      ],
      "CostCenterController": [
         "get",
         "getAdministrative"
      ],
      "DocumentsController": [
         "assistance"
      ],
      "EmployeeController": [
         "getAll",
         "checkMinUpdate",
         "checkUpdateTime"
      ],
      "PlaceController": [
         "new",
         "edit",
         "delete",
         "get",
         "getAll",
         "getByCode"
      ],
      "ProcessController": [
         "new",
         "edit",
         "delete",
         "get",
         "getAll",
         "getByCode"
      ],
      "ProductionCenterController": [
         "new",
         "edit",
         "delete",
         "get",
         "getAll",
         "getByCode",
         "getByName",
         "getFromRoster"
      ],
      "ReportController": [
         "getItems",
         "getByProductionCenter",
         "getTotals",
         "getCoverage",
         "getByEmployee",
         "getTrainingsByYear",
         "getByEffectiveness"
      ],
      "ResponsableController": [
         "new",
         "edit",
         "delete",
         "get",
         "getByEffectiveness",
         "getAll",
         "getByCode"
      ],
      "TeachingMaterialController": [
         "new",
         "edit",
         "delete",
         "get",
         "getAll",
         "getByCode"
      ],
      "TestController": [
         "connsqlsrv",
         "connSqlPro"
      ],
      "ThemeController": [
         "new",
         "edit",
         "delete",
         "get",
         "getAll",
         "getByCode"
      ],
      "TrainerPositionController": [
         "new",
         "edit",
         "delete",
         "get",
         "getAll",
         "getByCode"
      ],
      "TrainingController": [
         "new",
         "editPlanned",
         "editInExecution",
         "addAssistants",
         "editExecuted",
         "setAssistants",
         "setTrainingMaterial",
         "setAssistance",
         "endUp",
         "delete",
         "getListInExecution",
         "getPlanned",
         "getInExecution",
         "getExecuted",
         "getAll",
         "getToView",
         "getByCode",
         "getByYear",
         "AZGenerator",
         "getTeachingMaterial",
         "getAssistance",
         "getAssistants",
         "getTrainingMaterialByCode",
         "getItemsPlanned",
         "getItemsInExecution"
      ]

   },
   "view": {
        "calendar": [
            "index"
        ],
        "error": [
            "404",
            "fatal",
            "permission-required",
            "session-required"
        ],
        "help": [
            "index"
        ],
        "item": [
            "addressed",
            "place",
            "process",
            "production-center",
            "responsable",
            "teaching-material",
            "theme",
            "trainer-position"
        ],
        "overall": [
            "alert",
            "end-body",
            "footer",
            "head",
            "navbar",
            "start-body"
        ],
        "reports": [
            "coverage",
            "effectiveness",
            "employee",
            "index",
            "production-center",
            "totals",
            "training",
            "training-effectiveness"
        ],
        "signin": [
            "index"
        ],
        "test": [
            "index"
        ],
        "training": [
            "add-assistants",
            "add-teaching-material",
            "assistants-and-notes",
            "edit-in-execution",
            "edit-state",
            "edit",
            "end",
            "index",
            "manage",
            "new",
            "view-assistants",
            "view"
        ],
        "user": [
            "account",
            "edit",
            "index",
            "manage-items",
            "manage-users",
            "manage",
            "new",
            "notifications"
        ]
   }
}
