{
    "defaultRule": {
        "enabled": true,
        "session": true,
        "allLibraries": true,
        "navbar": true,
        "alert": true,
        "validInSession": true,
        "navigationBar": true,
        "content": true
    },
    "signin": {
        "index": {
            "session": false,
            "navigationBar": false,
            "navbar": false,
            "content": false,
            "validInSession": false
        }
    },
    "error": {
        "404": {
            "enabled": true,
            "session": false,
            "allLibraries": false,
            "navbar": false,
            "alert": false
        }
    },
    "help": {
        "index": {
            "session": false,
            "allLibraries": false,
            "navbar": false,
            "alert": false
        }
    }
}
