{
    "controller": "app/Controllers/",
    "view": "app/Views/",
    "model": "app/Models/",
    "dictionaries": "bin/Dictionaries/",
    "functions": "bin/Functions/",
    "head": "overall/overall-head.php",
    "startBody": "overall/overall-start-body.php",
    "endBody": "overall/overall-end-body.html",
    "navbar": "overall/overall-navbar.php",
    "alert": "overall/overall-alert.html",
    "footer": "overall/overall-footer.html"
}
